{
    "nations": [
        "Italy",
        "France",
        "Spain",
        "England",
        "Germany",
        "Portugal",
        "USA",
        "Colombia",
        "Greece",
        "Brazil",
        "Marocco",
        "Argentina",
        "Tunisia",
        "Jamaica",
        "Mexico",
        "Congo",
        "South Africa",
        "Poland",
        "Russia",
        "Paraguay",
        "Norway",
        "Austria",
        "Australia",
        "Vietnam",
        "Chile",
        "Turkey",
        "Zimbabwe",
        "Egypt",
        "Cyprus",
        "Switzerland"
    ],

    "cities": [
        ["Rome", "Milan", "Florence", "Naples"],
        ["Paris", "Marseille", "Toulouse", "Grenoble"],
        ["Madrid", "Barcelona", "Cordoba", "Valencia"],
        ["London", "Liverpool", "Manchester", "Bristol"],
        ["Berlin", "Hamburg", "Munich", "Cologne"],
        ["Lisbon", "Santa Cruz", "Porto", "Faro"],
        ["Washington", "New York", "Los Angeles", "Miami"],
        ["Bogotà", "Cali", "Buenaventura", "Santa Marta"],
        ["Athens", "Corinto", "Larissa", "Patras"],
        ["Brasilia", "Rio de Janeiro", "San Paolo", "Salvador"],
        ["Rabat", "Casablanca", "Marrakech", "Tangeri"],
        ["Buenos Aires", "Mendoza", "Mar de Plata", "Rosario"],
        ["Tunisi", "Cartagine", "Jerba", "Ariana"],
        ["Kingston", "Montego Bay", "Spanish Town", "Mandeville"],
        ["City of Mexico", "Tijuana", "Puebla", "Guadalajara"],
        ["Brazzaville", "Goma", "Bakavu", "Kinshasa"],
        ["Cape Town", "Pretoria", "Bloemfontein", "Port Elizabeth"],
        ["Varsavia", "Krakóv", "Lubin", "Radom"],
        ["Moscow", "Saint Petersburg", "Novosibirsk", "Kazan"],
        ["Asunción", "Ciudad del Este", "Encarnación", "Limpio"],
        ["Oslo", "Bergen", "Stravanger", "Lillehammer"],
        ["Vienna", "Salzburg", "Linz", "Graz"],
        ["Camberra", "Sidney", "Melbourne", "Darwin"],
        ["Hanoi", "Ho Chi Minh", "Nha Trang", "Haiphong"],
        ["Santiago del Chile", "La Serena", "Valdivia", "Valparaíso"],
        ["Ankara", "Istanbul", "Adalia", "Smirne"],
        ["Harare", "Mutare", "Bulawayo", "Kadoma"],
        ["Il Cairo", "Alexandria", "Luxor", "Giza"],
        ["Nicosia", "Famagusta", "Paphos", "Limassol"],
        ["Berne", "Geneva", "Lugano", "Zürich"]
    ]
}